…
``` r
fake_ppl %>%
  select(postal_start_auto) %>%
  diagnose_category(top = 100)
```

    ## # A tibble: 65 x 6
    ##    variables         levels     N  freq ratio  rank
    ##    <chr>             <chr>  <int> <int> <dbl> <int>
    ##  1 postal_start_auto <NA>    1000    81   8.1     1
    ##  2 postal_start_auto V2X     1000    31   3.1     2
    ##  3 postal_start_auto V7Y     1000    28   2.8     3
    ##  4 postal_start_auto L6R     1000    23   2.3     4
    ##  5 postal_start_auto V1Z     1000    22   2.2     5
    ##  6 postal_start_auto M9R     1000    21   2.1     6
    ##  7 postal_start_auto V9C     1000    21   2.1     6
    ##  8 postal_start_auto V9G     1000    21   2.1     6
    ##  9 postal_start_auto H4R     1000    20   2       9
    ## 10 postal_start_auto V3B     1000    19   1.9    10
    ## # ... with 55 more rows
…
    ## # A tibble: 5 x 6
    ##   variables outliers_cnt outliers_ratio outliers_mean with_mean without_mean
    ##   <chr>            <int>          <dbl>         <dbl>     <dbl>        <dbl>
    ## 1 measure_1            0              0           NaN     0.701        0.701
    ## 2 measure_2          120             12             1     0.12         0    
    ## 3 measure_3            0              0           NaN     0.356        0.356
    ## 4 measure_6            0              0           NaN    74.9         74.9  
    ## 5 measure_7            0              0           NaN   200.         200.

``` r
diagnose_outlier(ergo) %>%
  filter(outliers_cnt > 0)
```

    ## # A tibble: 98 x 6
    ##    variables    outliers_cnt outliers_ratio outliers_mean with_mean without_mean
    ##    <chr>               <int>          <dbl>         <dbl>     <dbl>        <dbl>
    ##  1 subjectid               1         0.0165       920103     20757.       20609.
    ##  2 abdominalex~           46         0.758           368.      246.         246.
    ##  3 acromialhei~           17         0.280          1445.     1406.        1406.
    ##  4 acromionrad~           37         0.610           324.      327.         327.
    ##  5 anklecircum~           77         1.27            254.      225.         225.
    ##  6 axillaheight           30         0.494          1355.     1300.        1299.
    ##  7 balloffootc~           18         0.297           274.      244.         244.
    ##  8 balloffootl~           18         0.297           204.      195.         195.
    ##  9 biacromialb~            3         0.0494          356       399.         399.
    ## 10 bicepscircu~           19         0.313           456.      341.         341.
    ## # ... with 88 more rows
…
``` r
normality(ergo)
```

    ## # A tibble: 99 x 4
    ##    vars                           statistic  p_value sample
    ##    <chr>                              <dbl>    <dbl>  <dbl>
    ##  1 subjectid                          0.219 4.45e-90   5000
    ##  2 abdominalextensiondepthsitting     0.981 1.49e-25   5000
    ##  3 acromialheight                     0.999 8.22e- 4   5000
    ##  4 acromionradialelength              0.999 2.99e- 2   5000
    ##  5 anklecircumference                 0.997 4.15e- 9   5000
    ##  6 axillaheight                       0.999 2.56e- 2   5000
    ##  7 balloffootcircumference            0.997 5.47e- 8   5000
    ##  8 balloffootlength                   0.997 2.74e- 9   5000
    ##  9 biacromialbreadth                  0.984 1.22e-23   5000
    ## 10 bicepscircumferenceflexed          0.997 3.03e- 8   5000
    ## # ... with 89 more rows
…
<br />

When a rule is broken, you can dive into it and figure out which rows
are breaking the rule.

``` r
mini_rules <- validator(
  is_unique(first_name, sex)
)

violating(fake_ppl, confront(fake_ppl, mini_rules))
```

    ## # A tibble: 147 x 18
    ##    id         first_name  last_name  email    sex   country province postal_code
    ##    <chr>      <chr>       <chr>      <chr>    <chr> <chr>   <chr>    <chr>      
    ##  1 1831327147 <NA>        Sikora     <NA>     F     Canada  BC       H9K 7O0    
    ##  2 5406241672 Maurice     Brewster   mbrewst~ M     Canada  BC       V2X 0T9    
    ##  3 1170826679 Christoforo O'Shavlan  coshavl~ M     Canada  BC       V7Y 9T8    
    ##  4 0823742997 Vergil      Holson     vholson~ M     Canada  BC       NA NA      
    ##  5 2006526294 Krispin     Churm      kchurmt~ M     Canada  BC       V5A 9U8    
    ##  6 6312791742 Antonin     Huffey     ahuffey~ M     Canada  BC       V4W 8C1    
    ##  7 4093760519 Eartha      O'Moylan   eomoyla~ F     Canada  BC       K2H 9F6    
    ##  8 5355183891 Lanny       Eldrett    leldret~ F     Canada  BC       J1K 5K5    
    ##  9 6904257830 Skipp       Littlemore <NA>     M     Canada  BC       V7Y 6I7    
    ## 10 8910256230 Aridatha    Mcwhinnie  amcwhin~ F     Canada  BC       V9C 4D8    
    ## # ... with 137 more rows, and 10 more variables: postal_start_auto <chr>,
    ## #   postal_end_regex <chr>, birth_date <date>, measure_1 <dbl>,
    ## #   measure_2 <dbl>, measure_3 <dbl>, measure_4 <lgl>, measure_5 <lgl>,
    ## #   measure_6 <dbl>, measure_7 <dbl>
…
